<?xml version="1.0" encoding="UTF-8"?>
<svg viewBox="0 0 20 20" version="1.1" xmlns="http://www.w3.org/2000/svg" xmlns:xlink="http://www.w3.org/1999/xlink">
    <title>icons/tree-directory</title>
    <desc>Created with Sketch.</desc>
    <g id="icons/tree-directory" stroke="none" stroke-width="1" fill-rule="nonzero">
        <g id="tree-directory">
            <polygon fill-rule="evenodd" clip-rule="evenodd" id="path-1" points="18 2 18 6 4 6 4 9 6 9 6 8 18 8 18 12 8 12 8 15 10 15 10 14 18 14 18 18 10 18 10 16 7 16 7 12 6 12 6 10 3 10 3 6 2 6 2 2"></polygon>
        </g>
    </g>
</svg>